UserPanel$4.class
LoginFrame$3.class
LoginFrame$2.class
LoginFrame.class
UserPanel$5.class
MainFrame$1.class
UserPanel$1.class
UserService.class
LoginFrame$1.class
UserPanel$2.class
User.class
TestReadFile.class
TestWriteFile.class
UserPanel.class
MainFrame.class
UserPanel$3.class
